{
  "id":"d17e5e28-23b1-11e9-a439-507b9dfbcb8f",
  "orderId":"1547473364088",
  "address":"rlEVA1TFr3QeRFoNlYM7LufsRrA8T",
  "currency":"BTC",
  "signature": "o34CoumNxCmnYMVd8qu2LQfWLdY3IwXrnUzYa01yu1l+tnDrnpH1S\/svFy9p\/abkMksLpgyC9KvGdAIvw\/gFQ3K1Z8\/NRbKZWqJN2Tt4AuZfeDI0n3B\/VCNkmLDIPhu0lPnlJEsb9KAvPNlCPcYuLdO0VKUag6cVz41lv7AQAaM="
}
