{
  "depositId": "0026064837F111E8BBB9507B9DFBCB8F",
  "customerId": "E5C4CCD4371511E8981A507B9DFBCB8F",
  "txId": "51b78168d94ec307e2855697209275d477e05d8647caf29cb9e38fb6a4661145",
  "address": "13iTN6jMCjGazw26mZNY8MtfAj3D8rQyDH",
  "amount": "0.01002645",
  "currency": "btc",
  "confirmations": 273828,
  "hash": "ca3f1db57acb47ea1a179612ed7a90e68fa1ec19b8f943099afac4c70863e85c"
}