[
  "USD/DASH",
  "USD/FTO",
  "USD/LTC",
  "USD/QTUM",
  "USD/BCH",
  "USD/BTC",
  "USD/ETH",
  "USD/XRP",
  "USD/NANO",
  "USD/LSK",
  "USD/BCN",
  "USD/XVG",
  "USD/ONION",
  "USD/SHND",
  "USD/DFT",
  "USD/XIN",
  "USD/XP",
  "USD/XMR",
  "USD/DOGE",
  "USD/TRX",
  "USD/EOS"
]